Week 3 Lab: Exploring ggplot2
…
1.3 Why Should You Jitter the Plot?

# Count occurrences of each bill length within each species
bill_length_counts <- penguins_clean |>
  group_by(species, bill_length_mm) |>
  summarise(count = n(), .groups = "drop") |>
  filter(count > 1) |>
  arrange(desc(count))

# Display cases where multiple penguins have the same bill length within a species
print(bill_length_counts)

# A tibble: 84 × 3
   species bill_length_mm count
   <fct>            <dbl> <int>
 1 Adelie            41.1     7
 2 Adelie            37.8     5
 3 Adelie            39.6     5
 4 Adelie            36       4
 5 Adelie            38.1     4
 6 Adelie            39.7     4
 7 Adelie            40.6     4
 8 Gentoo            45.2     4
 9 Gentoo            45.5     4
10 Gentoo            46.2     4
# ℹ 74 more rows
…
